<?xml version="1.0" encoding="utf-8"?>
<!-- Generator: Adobe Illustrator 19.2.1, SVG Export Plug-In . SVG Version: 6.00 Build 0)  -->
<svg version="1.1" id="Layer_1" xmlns="http://www.w3.org/2000/svg" xmlns:xlink="http://www.w3.org/1999/xlink" x="0px" y="0px"
	 viewBox="0 0 151.8 57.1" style="enable-background:new 0 0 151.8 57.1;" xml:space="preserve">
<path d="M148.5,27c1.4-1.6,2.1-3.7,2.1-5.8c0-1.4-0.3-2.7-0.9-3.9l0,0c-1.6-3.6-5.1-6.5-5.8-9.5c-0.3-1.4,1.5-1.5,2.2-0.6
	c0.6,0.8,1,1.6,2.5,1.8c1.3,0.2,2.4-0.7,3.1-1c-0.2-0.1-3.3-1.5-5.8-2.6c-6.9-2.8-2.9,5.6-2.5,6.9l0,0c-3.7-1.6-6.4-3.7-9-5.8
	c-2-1.6-4-3.2-6.3-4.4l0,0c-3-1.7-4.8-2-6.5-2.1c-2.9-0.1-5.5,1.9-6.2,4.4c0.3,0,1.8,0.1,3.4,0c0,0-0.4,1-2.3,1
	c-2.3,0-3.4,0-3.9,0.1c-3.5,0.2-2.6,4.9-2.6,4.9c-1.1-0.5-1.3-2.2-1.2-3c-0.8,0.4-4.1,5.7,0.6,6.6c-0.4,3.6,0.1,7.1,1.4,8
	c0.1,0,0.1,0,0.1,0c1.3-0.3,1.6,4.9,1.4,5.8c0.4,0,1.1-0.2,1.5-0.5l0,0c0.4,0.3,0.7,0.7,0.7,1.2c0,0.6-0.3,1.1-0.8,1.3l0,0
	c2.6,0.9,4.8-1.6,4.5-3.3c0.5,0.1,0.9,0.5,0.9,1.1c0,0.2,0,0.4-0.1,0.5c0.8-0.3,1.8-1.1,2.5-2.6c0,2.9-3.1,4.8-4.3,6.1
	c-0.2,0.6,0.4,2.2,0.7,2.6c0.4,0.4,0.6,0,3.3,0.9c0.4,0.1,1.9,0.8,1.9,1.1c-0.3,0.2-0.5,0.4-0.6,0.5c-0.1,0.6-0.4,1.9-0.4,1.9h5.6
	c0,0-0.1-0.6,0.1-1.3c0.1-0.7,0.6-1.3,0.6-1.3c0.3-0.2,1.7,0.1,1.8,0.1c-0.1-0.4-0.2-0.9-0.2-1.3c0.4,0.1,1,0.2,1.5,0.2
	c-0.6-1.3,0-6.6,4.5-4c-1,3.1-2.4,5.4-3.6,5.7c-0.1,0-0.2,0-0.3,0c-0.3,0.6-0.5,1.3-0.7,1.9h5.1c0-1.4,1.1-3.4,3.2-5.2
	c0.8-0.7,1.6-1.2,2.4-1.7c-0.5-0.7-0.8-1.4-0.7-1.6c0,0,0,0,0.1,0c0.2,0,0.3,0,0.5,0c0.9,0,1.7-0.1,2.6-0.4c0.6,1.4,1.5,2.9,1.3,4.6
	c-0.1,1-0.5,1.7-1.7,2.3c-0.3,0.6-0.5,1.3-0.7,1.9h4.8c-0.2-2.6,1-5.2,1.8-6.7C149.2,30.5,148.3,28.7,148.5,27L148.5,27 M118,22
	L118,22c-1.6-0.6-0.9,0.9-2.5,0.9l0,0l0,0c-1.6,0-0.9-1.6-2.4-0.9l0,0c0,0,0,0-0.1,0s-0.2-0.1-0.2-0.2v-0.1c0.1-0.1,0.2-0.1,0.3-0.2
	c0.2-0.1,0.7-0.4,2.4-0.4c1.7,0,2.3,0.3,2.4,0.4c0.1,0,0.2,0.1,0.2,0.2l0,0v0.1C118.2,21.9,118.1,22,118,22 M121.2,17
	c-0.3,0.8-1.4,0.6-1.5,0.3c-0.2-0.7,0.6-0.6,1.2-1.6C121.5,14.6,121.4,16.6,121.2,17 M121.8,11.4c0.7-1.1,2.2-0.6,2.2-3.9
	c2.7,3.4,1.1,5.1,0.3,5.7C122.5,14.4,120.7,13,121.8,11.4 M126.2,32.5c-0.2,0.6-0.5,1.3-1.1,1.8c0-0.6-0.2-1.4-0.2-2
	c-0.5,0.1-2.2,0.3-2.9-0.2c1.7-0.4,3.7-2.5,4.1-3C126.5,29.9,126.5,31.6,126.2,32.5 M147,25.7c-0.1,0.1-0.2,0.2-0.3,0.4l0,0
	c0.3-6.1-9.4-5.1-16.6-3.6c7.1-5.2,1.2-10.7,1.2-11.5c0.5,0.3,1.9,0.9,2.8,0.9c-1.1-1.7-1.9-3.9-2.2-4.5V7.1
	c0.5,0.3,0.9,0.7,1.4,1.1c3.1,2.5,6.2,5,11.2,6.9c2.9,1.1,4.2,3.4,4.2,6.2C148.6,22.9,148.1,24.5,147,25.7"/>
<g>
	<path d="M9.9,18.8h-2L0,38.5h2.7l2.5-6.4h7.3l2.5,6.3h2.8L9.9,18.8L9.9,18.8z M11.6,30H6l2.8-7.2L11.6,30z"/>
	<rect x="66.2" y="20.3" width="2.5" height="2.6"/>
	<path d="M93,35.1V29c0-3.1-2.1-5.1-5.3-5.1c-2.7,0-4.7,0.7-6.1,2.2h-0.1l1.5,1.8l0.1-0.1c1.2-1.1,2.6-1.6,4.1-1.6
		c2.2,0,3.2,1,3.2,3.3v0.1h-0.7c-2.4,0-8.8,0-8.8,5c0,3,2.6,4.3,5,4.3c2.1,0,3.5-0.7,4.6-2.1c0,0.6,0.1,1.2,0.2,1.7l0,0h2.4l0,0
		C93.1,37.4,93,36.1,93,35.1 M89.8,31.6h0.7v0.7c0,2-1,4.2-3.9,4.2c-1.4,0-3-0.6-3-2.3S85.7,31.6,89.8,31.6"/>
	<rect x="66.2" y="24.2" width="2.5" height="14.3"/>
	<path d="M79.8,35.9c-0.8,0.4-1.5,0.6-2.2,0.6c-1.1,0-1.7-0.3-1.7-2.2v-7.8h3.9v-2.3h-3.9v-3.9h-2.5v3.9h-2.9v2.3h2.9v8.4
		c0,3.6,2.6,3.9,3.7,3.9s1.9-0.2,2.7-0.6V35.9z"/>
	<path d="M63.1,24.1c-2.2,0-3.4,1.1-4,1.9v-1.9h-2.5v14.3H59v-7.7c0-1.7,1.1-4.2,3.9-4.4c0.7,0,1.4,0.1,1.4,0.1v-2.3
		C64.3,24.2,63.6,24.1,63.1,24.1"/>
	<path d="M52.2,34.2c-0.9,1.5-2.5,2.3-4.2,2.3c-2.4,0-4.4-1.8-4.7-4.4h11.4v-1.2c0-4.2-2.8-7.1-6.8-7.1c-4.1,0-7.2,3.2-7.2,7.5
		s3.2,7.5,7.4,7.5c2.5,0,4.5-1,6.1-3L52.2,34.2z M47.8,26.1c2.5,0,4.1,1.5,4.2,3.9h-8.7C43.5,28,45.6,26.1,47.8,26.1"/>
	<path d="M102.2,30.3l-2-0.5c-1.9-0.4-2.5-0.9-2.5-1.9c0-1.2,1.3-1.8,2.6-1.8c1.2,0,2.1,0.6,2.8,1.8l0.1,0.1l2.2-1.4l-0.1-0.1
		c-0.9-1.8-2.5-2.7-4.9-2.7c-2.7,0-5.4,1.4-5.4,4.4c0,1.9,1.3,3.3,3.7,3.9l1.9,0.4c1.5,0.4,2.4,0.8,2.4,1.9c0,1.4-1.5,2-3,2
		c-1.4,0-2.6-0.7-3.5-2.1L96.4,34l-2.1,1.6l0.1,0.1c1.3,2,3.1,2.9,5.6,2.9c2.6,0,5.6-1.2,5.6-4.5C105.8,32.4,104.4,30.8,102.2,30.3"
		/>
	<path d="M33.7,23.8c-3,0-4.1,2.4-4.1,2.4c-1-2-2.7-2.4-4.1-2.4c-1.6,0-2.8,0.4-3.8,1.7v-1.3h-2.5v14.3h2.5c0,0,0-9.3,0-9.4l0,0
		c0-1.8,1.4-3,3.1-3c2-0.1,3,1.1,3,2.7c0,0.2,0,0.4,0,0.6v9.1h2.5V29c0-1.7,1.5-2.9,3-2.9c2.2,0,3,1.3,3,2.9v9.4h2.5v-9.5
		C38.8,25.7,37,23.8,33.7,23.8"/>
	<path d="M108.9,35.5c0.2,0.1,0.4,0.2,0.5,0.4c0.1,0.1,0.3,0.3,0.3,0.5c0.1,0.2,0.1,0.4,0.1,0.6c0,0.2,0,0.5-0.1,0.6
		c-0.1,0.2-0.2,0.4-0.3,0.5c-0.1,0.1-0.3,0.3-0.5,0.3c-0.2,0.1-0.4,0.1-0.7,0.1c-0.2,0-0.5,0-0.7-0.1s-0.4-0.2-0.5-0.3
		s-0.3-0.3-0.3-0.5c-0.1-0.2-0.1-0.4-0.1-0.6c0-0.2,0-0.4,0.1-0.6c0.1-0.2,0.2-0.4,0.3-0.5c0.1-0.1,0.3-0.3,0.5-0.4
		c0.2-0.1,0.4-0.1,0.7-0.1C108.5,35.4,108.7,35.4,108.9,35.5 M107.7,35.7c-0.2,0.1-0.3,0.2-0.4,0.3s-0.2,0.3-0.3,0.4
		c-0.1,0.2-0.1,0.4-0.1,0.6s0,0.4,0.1,0.6c0.1,0.2,0.2,0.3,0.3,0.4c0.1,0.1,0.3,0.2,0.4,0.3s0.4,0.1,0.6,0.1s0.4,0,0.6-0.1
		s0.3-0.2,0.4-0.3s0.2-0.3,0.3-0.4c0.1-0.2,0.1-0.4,0.1-0.6s0-0.4-0.1-0.6c-0.1-0.2-0.2-0.3-0.3-0.4c-0.1-0.1-0.3-0.2-0.4-0.3
		c-0.2-0.1-0.4-0.1-0.6-0.1S107.9,35.7,107.7,35.7 M107.8,37.9v-1.7h0.7c0.2,0,0.3,0,0.4,0.1s0.1,0.2,0.1,0.4c0,0.1,0,0.1,0,0.2
		c0,0.1-0.1,0.1-0.1,0.1l-0.1,0.1c-0.1,0-0.1,0-0.2,0.1l0.5,0.8h-0.2l-0.5-0.8H108V38L107.8,37.9L107.8,37.9z M108.4,37
		c0.1,0,0.1,0,0.2,0c0,0,0.1,0,0.1-0.1c0,0,0-0.1,0-0.2c0-0.1,0-0.1,0-0.1l-0.1-0.1h-0.1c0,0-0.1,0-0.2,0H108v0.6h0.3
		C108.3,37,108.4,37,108.4,37"/>
</g>
<g>
	<path d="M102,51.4c0.2-0.9,1.1-1.7,1.9-1.7c1.2,0,1.4,0.8,1.2,1.7H102z M104.8,52.9c-0.1,0.4-0.8,1.1-1.7,1.1
		c-1.1,0-1.5-0.7-1.3-1.9h4.2c0.4-2-0.1-3.3-1.7-3.3c-1.9,0-3,1.4-3.4,3.2c-0.3,1.6,0.3,2.9,1.9,2.9c0.9,0,1.3-0.2,1.6-0.4
		c0.8-0.5,1.3-1.3,1.3-1.6H104.8z M100.1,49.8l0.2-0.8h-1l0.2-0.7c0.1-0.5,0.3-0.7,0.7-0.7c0.1,0,0.3,0,0.4,0l0.2-0.9
		c-0.1,0-0.3,0-0.4,0c-0.9,0-1.6,0.4-1.7,1.3l-0.2,1h-0.8l-0.2,0.8h0.8l-1,4.9h1l1-4.9C99.3,49.8,100.1,49.8,100.1,49.8z M96.4,48
		l0.2-1.1h-1L95.4,48H96.4z M96.2,49h-1L94,54.7h1L96.2,49z M93.9,46.9h-1l-1.7,7.8h1L93.9,46.9z M87,49h-0.9l-0.2,0.8
		c-0.2-0.3-0.5-1-1.5-1c-1.5,0-2.6,1.2-3,2.8c-0.3,1.4-0.1,3.2,1.8,3.2c0.8,0,1.3-0.3,1.7-0.8l-0.1,0.2c-0.1,0.7-0.4,2-2,2
		c-0.2,0-1.1,0-1.1-0.9h-1c0,1.6,1.3,1.8,2,1.8c2.6,0,3.1-2,3.3-2.9L87,49z M82.4,51.9c0.2-0.7,0.5-2.1,2-2.1c1.4,0,1.2,1.5,1,2.4
		c-0.3,1.5-1.4,1.9-2,1.9C82.4,54.1,82.1,53.1,82.4,51.9 M79.9,50.8c0.3-1.6-0.7-2-1.6-2c-1,0-1.7,0.7-1.9,1l0,0l0.2-0.8h-0.9
		l-1.2,5.7h1l0.7-3.1c0.3-1.5,1.4-1.9,1.9-1.9c0.9,0,1.1,0.5,0.9,1.5l-0.7,3.5h1L79.9,50.8z M73.9,48l0.2-1.1h-1L73,48H73.9z
		 M73.7,49h-1l-1.2,5.7h1L73.7,49z M71.2,46.9h-1l-1.7,7.8h1L71.2,46.9z M68.2,46.9h-1l-1.7,7.8h1L68.2,46.9z M65,48l0.2-1.1h-1
		L64,48H65z M64.8,49h-1l-1.2,5.7h1L64.8,49z M62,49.8l0.2-0.8h-1l0.2-0.7c0.1-0.5,0.3-0.7,0.7-0.7c0.1,0,0.3,0,0.4,0l0.2-0.9
		c-0.1,0-0.3,0-0.4,0c-0.9,0-1.6,0.4-1.7,1.3l-0.2,1h-0.8l-0.2,0.8h0.8l-1,4.9h1l1-4.9C61.2,49.8,62,49.8,62,49.8z M58.3,46.9h-1
		l-1.7,7.8h1L58.3,46.9z M53.7,54.7l1.2-5.7h-1l-0.7,3.1c-0.2,0.8-0.8,1.9-2,1.9c-0.6,0-1-0.3-0.8-1.3l0.8-3.8h-1l-0.8,4.2
		c-0.3,1.4,0.6,1.8,1.5,1.8s1.5-0.3,2-1l0,0l-0.2,0.8H53.7z M48.5,49.8l0.2-0.8h-1l0.1-0.7c0.1-0.5,0.3-0.7,0.7-0.7
		c0.1,0,0.3,0,0.4,0l0.2-0.9c-0.1,0-0.3,0-0.4,0c-0.9,0-1.6,0.4-1.7,1.3l-0.2,1H46l-0.2,0.8h0.8l-1,4.9h1l1-4.9
		C47.6,49.8,48.5,49.8,48.5,49.8z"/>
	<path d="M106.6,53.8c0-0.6,0.5-1.1,1.1-1.1s1.1,0.4,1.1,1.1c0,0.6-0.5,1.1-1.1,1.1C107.1,54.8,106.6,54.4,106.6,53.8z M107.6,54.7
		c0.5,0,0.9-0.4,0.9-0.9s-0.4-0.9-0.9-0.9s-0.9,0.4-0.9,0.9C106.8,54.3,107.2,54.7,107.6,54.7z M107.4,54.4h-0.2v-1.2h0.5
		c0.3,0,0.4,0.1,0.4,0.3s-0.1,0.3-0.3,0.3l0.3,0.5H108l-0.3-0.5h-0.2L107.4,54.4L107.4,54.4z M107.6,53.7c0.2,0,0.3,0,0.3-0.2
		s-0.1-0.2-0.3-0.2h-0.3v0.4H107.6z"/>
</g>
</svg>
